<?xml version="1.0" encoding="UTF-8" standalone="no"?>
<graphml xmlns="http://graphml.graphdrawing.org/xmlns" xmlns:xsi="http://www.w3.org/2001/XMLSchema-instance" xmlns:y="http://www.yworks.com/xml/graphml" xmlns:yed="http://www.yworks.com/xml/yed/3" xsi:schemaLocation="http://graphml.graphdrawing.org/xmlns http://www.yworks.com/xml/schema/graphml/1.1/ygraphml.xsd">
  <!--Created by yFiles for Java 2.10-->
  <key for="graphml" id="d0" yfiles.type="resources"/>
  <key for="port" id="d1" yfiles.type="portgraphics"/>
  <key for="port" id="d2" yfiles.type="portgeometry"/>
  <key for="port" id="d3" yfiles.type="portuserdata"/>
  <key attr.name="NAME" attr.type="string" for="node" id="d4">
    <default><![CDATA[?]]></default>
  </key>
  <key attr.name="PNA" attr.type="string" for="node" id="d5">
    <default><![CDATA[?]]></default>
  </key>
  <key attr.name="PSS" attr.type="string" for="node" id="d6">
    <default><![CDATA[?]]></default>
  </key>
  <key attr.name="NSP" attr.type="string" for="node" id="d7">
    <default><![CDATA[?]]></default>
  </key>
  <key attr.name="PSEUDO" attr.type="string" for="node" id="d8">
    <default><![CDATA[?]]></default>
  </key>
  <key attr.name="RATING" attr.type="string" for="node" id="d9">
    <default><![CDATA[?]]></default>
  </key>
  <key attr.name="CCTID" attr.type="string" for="node" id="d10">
    <default><![CDATA[NULL]]></default>
  </key>
  <key attr.name="MULTIWINDING_ID" attr.type="string" for="node" id="d11">
    <default><![CDATA[NULL]]></default>
  </key>
  <key attr.name="CBREAKER_REF_FROM" attr.type="string" for="node" id="d12">
    <default><![CDATA[NULL]]></default>
  </key>
  <key attr.name="CBREAKER_REF_TO" attr.type="string" for="node" id="d13">
    <default><![CDATA[NULL]]></default>
  </key>
  <key attr.name="url" attr.type="string" for="node" id="d14"/>
  <key attr.name="description" attr.type="string" for="node" id="d15"/>
  <key for="node" id="d16" yfiles.type="nodegraphics"/>
  <key attr.name="Description" attr.type="string" for="graph" id="d17"/>
  <key attr.name="url" attr.type="string" for="edge" id="d18"/>
  <key attr.name="description" attr.type="string" for="edge" id="d19"/>
  <key for="edge" id="d20" yfiles.type="edgegraphics"/>
  <graph edgedefault="directed" id="G">
    <data key="d17"/>
  </graph>
  <data key="d0">
    <y:Resources/>
  </data>
</graphml>
